%YAML 1.1
%TAG !u! tag:unity3d.com,2011:
--- !u!1045 &1
EditorBuildSettings:
  m_ObjectHideFlags: 0
  serializedVersion: 2
  m_Scenes:
  - enabled: 1
    path: Assets/Scenes/Menu.unity
    guid: e9b52afac61b4804db955c2803d4dae2
  - enabled: 1
    path: Assets/Scenes/Level1.unity
    guid: 066b649506c64ef4fad1799168a915c6
  - enabled: 1
    path: Assets/Scenes/Credits.unity
    guid: b2065854181e30448a4bd4422dcbc57f
